<svg width="20" height="20" viewBox="0 0 20 20" fill="none" xmlns="http://www.w3.org/2000/svg">
<path fill-rule="evenodd" clip-rule="evenodd" d="M11.0416 16.8588H11.4571L18 10.3159V9.01794L11.25 2.26794L9.65919 3.85876L14.3418 8.54255H2V10.7926H14.3425L9.65781 15.475L11.0416 16.8588Z" fill="#0042C1"/>
</svg>
