<svg width="34" height="34" viewBox="0 0 34 34" fill="none" xmlns="http://www.w3.org/2000/svg">
<path d="M26 11C26.5523 11 27 10.5523 27 10C27 9.44772 26.5523 9 26 9H8C7.44772 9 7 9.44772 7 10C7 10.5523 7.44772 11 8 11H26ZM26 18C26.5523 18 27 17.5523 27 17C27 16.4477 26.5523 16 26 16H8C7.44772 16 7 16.4477 7 17C7 17.5523 7.44772 18 8 18H26ZM20.1667 25C20.719 25 21.1667 24.5523 21.1667 24C21.1667 23.4477 20.719 23 20.1667 23H8C7.44772 23 7 23.4477 7 24C7 24.5523 7.44772 25 8 25H20.1667Z" fill="#003293"/>
</svg>
