<svg width="50" height="50" viewBox="0 0 50 50" fill="none" xmlns="http://www.w3.org/2000/svg">
<circle cx="25" cy="25" r="25" fill="currentColor"/>
<mask id="mask0_64_47" style="mask-type:alpha" maskUnits="userSpaceOnUse" x="16" y="9" width="17" height="17">
<path fill-rule="evenodd" clip-rule="evenodd" d="M16.8669 9.99976H32.6773V25.808H16.8669V9.99976Z" fill="white"/>
</mask>
<g mask="url(#mask0_64_47)">
<path fill-rule="evenodd" clip-rule="evenodd" d="M24.7726 14.6326C26.5769 14.6326 28.0456 16.1008 28.0456 17.9056C28.0456 19.7085 26.5769 21.1772 24.7726 21.1772C22.9687 21.1772 21.4996 19.7085 21.4996 17.9056C21.4996 16.1008 22.9687 14.6326 24.7726 14.6326ZM24.7724 25.8078C29.1318 25.8078 32.6773 22.2634 32.6773 17.9054C32.6773 13.5455 29.1318 9.99951 24.7724 9.99951C20.4129 9.99951 16.8669 13.5455 16.8669 17.9054C16.8669 22.2634 20.4129 25.8078 24.7724 25.8078Z" fill="white"/>
</g>
<path fill-rule="evenodd" clip-rule="evenodd" d="M27.9697 32.257C29.5787 31.8905 31.1314 31.254 32.5598 30.3557C33.642 29.6741 33.968 28.2442 33.2864 27.1625C32.6053 26.0786 31.176 25.7526 30.0928 26.4344C26.8548 28.4704 22.686 28.4694 19.4499 26.4344C18.3664 25.7526 16.9376 26.0786 16.257 27.1625C15.5754 28.2452 15.9009 29.6741 16.9828 30.3557C18.4112 31.253 19.9637 31.8905 21.5722 32.257L17.1536 36.6767C16.2498 37.581 16.2498 39.0467 17.1545 39.9514C17.6072 40.4031 18.1989 40.6293 18.7912 40.6293C19.3847 40.6293 19.9774 40.4031 20.4295 39.9514L24.7711 35.6087L29.1156 39.9514C30.0186 40.8557 31.4848 40.8557 32.3886 39.9514C33.2948 39.0467 33.2948 37.58 32.3886 36.6767L27.9697 32.257Z" fill="white"/>
</svg>
